../Core/Src/stm32g0xx_hal_msp.c:63:6:HAL_MspInit	8	static
../Core/Src/stm32g0xx_hal_msp.c:85:6:HAL_TIM_Base_MspInit	64	static
../Core/Src/stm32g0xx_hal_msp.c:145:6:HAL_TIM_Base_MspDeInit	8	static
../Core/Src/stm32g0xx_hal_msp.c:192:6:HAL_UART_MspInit	40	static
../Core/Src/stm32g0xx_hal_msp.c:228:6:HAL_UART_MspDeInit	8	static
